%YAML 1.1
%TAG !u! tag:unity3d.com,2011:
--- !u!114 &11400000
MonoBehaviour:
  m_ObjectHideFlags: 0
  m_CorrespondingSourceObject: {fileID: 0}
  m_PrefabInstance: {fileID: 0}
  m_PrefabAsset: {fileID: 0}
  m_GameObject: {fileID: 0}
  m_Enabled: 1
  m_EditorHideFlags: 0
  m_Script: {fileID: 11500000, guid: e8c0450639a79c447a1d2fc2b9158e9f, type: 3}
  m_Name: scissorA
  m_EditorClassIdentifier: 
  Id: scissorA
  Type: 4
  Name: Scissor A
  Description: A Scissor based attack
  Range: 1
  Cost: 2
  Cooldown: 3
  Permanent: 1
  Tier: 1
  SkillEffects:
  - {fileID: 11400000, guid: 1479264cbfc2dfc468b1b4155602d249, type: 2}
  Upgrades:
    Branchs: []
