%YAML 1.1
%TAG !u! tag:unity3d.com,2011:
--- !u!114 &11400000
MonoBehaviour:
  m_ObjectHideFlags: 0
  m_CorrespondingSourceObject: {fileID: 0}
  m_PrefabInstance: {fileID: 0}
  m_PrefabAsset: {fileID: 0}
  m_GameObject: {fileID: 0}
  m_Enabled: 1
  m_EditorHideFlags: 0
  m_Script: {fileID: 11500000, guid: 5556a7f9018e8e649b0ea222d04c9d74, type: 3}
  m_Name: recoilDamage 1
  m_EditorClassIdentifier: 
  Id: recoilDamage 1
  Value: 5
  SkillEffectActionName: Damage
  SkillTarget: 1
  Type: 1
  StanceCondition: 5
  StancePhase: 4
  Duration: 0
  Tick: 1
  EffectIcon: {fileID: 0}
